<?xml version="1.0" encoding="UTF-8"?>
<svg width="22px" height="22px" viewBox="0 0 22 22" version="1.1" xmlns="http://www.w3.org/2000/svg" xmlns:xlink="http://www.w3.org/1999/xlink">
    <!-- Generator: Sketch 46.1 (44463) - http://www.bohemiancoding.com/sketch -->
    <title>icon/back</title>
    <desc>Created with Sketch.</desc>
    <defs></defs>
    <g id="Symbols" stroke="none" stroke-width="1" fill="none" fill-rule="evenodd">
        <g id="icon/back">
            <polygon id="Fill-1" points="0 22 22 22 22 0 0 0"></polygon>
            <g id="Page-1" transform="translate(1.000000, 2.000000)" fill="#FFFFFF">
                <path d="M19.255,8.00025 L3.828,8.00025 L10.121,1.70725 C10.512,1.31625 10.512,0.68425 10.121,0.29325 C9.731,-0.09775 9.098,-0.09775 8.707,0.29325 L0,9.00025 L8.707,17.70725 C8.902,17.90225 9.158,18.00025 9.414,18.00025 C9.67,18.00025 9.926,17.90225 10.121,17.70725 C10.512,17.31625 10.512,16.68425 10.121,16.29325 L3.828,10.00025 L19.255,10.00025 C19.808,10.00025 20.255,9.55225 20.255,9.00025 C20.255,8.44825 19.808,8.00025 19.255,8.00025" id="Fill-1"></path>
            </g>
        </g>
    </g>
</svg>